…
```r
library(tidyverse)
```

Here's a link to the Iris .csv dataset: `https://gist.githubusercontent.com/curran/a08a1080b88344b0c8a7/raw/0e7a9b0a5d22642a06d3d5b9bcbad9890c8ee534/iris.csv` Let's go ahead and import it using the `read_csv()` function in `readr`. We do this by typing `read_csv()` and then the file path to the dataset - in this case, the url above. Don't forget to put the file path in quotes!


```r
read_csv("https://gist.githubusercontent.com/curran/a08a1080b88344b0c8a7/raw/0e7a9b0a5d22642a06d3d5b9bcbad9890c8ee534/iris.csv")
```

```
## # A tibble: 150 x 5
##    sepal_length sepal_width petal_length petal_width species
##           <dbl>       <dbl>        <dbl>       <dbl> <chr>  
##  1          5.1         3.5          1.4         0.2 setosa 
##  2          4.9         3            1.4         0.2 setosa 
##  3          4.7         3.2          1.3         0.2 setosa 
##  4          4.6         3.1          1.5         0.2 setosa 
##  5          5           3.6          1.4         0.2 setosa 
##  6          5.4         3.9          1.7         0.4 setosa 
##  7          4.6         3.4          1.4         0.3 setosa 
##  8          5           3.4          1.5         0.2 setosa 
##  9          4.4         2.9          1.4         0.2 setosa 
## 10          4.9         3.1          1.5         0.1 setosa 
## # … with 140 more rows
```
…
